checkpoint1/simulation/qsim/alu.msim.vcd
$comment
	File created using the following command:
		vcd file alu.msim.vcd -direction
$end
$date
	Tue Sep 19 15:37:11 2023
$end
$version
	ModelSim Version 10.5b
$end
$timescale
	1ps
$end

$scope module alu_vlg_vec_tst $end
$var reg 5 ! ctrl_ALUopcode [4:0] $end
$var reg 5 " ctrl_shiftamt [4:0] $end
$var reg 32 # data_operandA [31:0] $end
$var reg 32 $ data_operandB [31:0] $end
$var wire 1 % data_result [31] $end
$var wire 1 & data_result [30] $end
$var wire 1 ' data_result [29] $end
$var wire 1 ( data_result [28] $end
$var wire 1 ) data_result [27] $end
$var wire 1 * data_result [26] $end
$var wire 1 + data_result [25] $end
$var wire 1 , data_result [24] $end
$var wire 1 - data_result [23] $end
$var wire 1 . data_result [22] $end
$var wire 1 / data_result [21] $end
$var wire 1 0 data_result [20] $end
$var wire 1 1 data_result [19] $end
$var wire 1 2 data_result [18] $end
$var wire 1 3 data_result [17] $end
$var wire 1 4 data_result [16] $end
$var wire 1 5 data_result [15] $end
$var wire 1 6 data_result [14] $end
$var wire 1 7 data_result [13] $end
$var wire 1 8 data_result [12] $end
$var wire 1 9 data_result [11] $end
$var wire 1 : data_result [10] $end
$var wire 1 ; data_result [9] $end
$var wire 1 < data_result [8] $end
$var wire 1 = data_result [7] $end
$var wire 1 > data_result [6] $end
$var wire 1 ? data_result [5] $end
$var wire 1 @ data_result [4] $end
$var wire 1 A data_result [3] $end
$var wire 1 B data_result [2] $end
$var wire 1 C data_result [1] $end
$var wire 1 D data_result [0] $end
$var wire 1 E isLessThan $end
$var wire 1 F isNotEqual $end
$var wire 1 G overflow $end

$scope module i1 $end
$var wire 1 H gnd $end
$var wire 1 I vcc $end
$var wire 1 J unknown $end
$var tri1 1 K devclrn $end
$var tri1 1 L devpor $end
$var tri1 1 M devoe $end
$var wire 1 N ctrl_ALUopcode[1]~input_o $end
$var wire 1 O ctrl_ALUopcode[2]~input_o $end
$var wire 1 P ctrl_ALUopcode[3]~input_o $end
$var wire 1 Q ctrl_ALUopcode[4]~input_o $end
$var wire 1 R ctrl_shiftamt[0]~input_o $end
$var wire 1 S ctrl_shiftamt[1]~input_o $end
$var wire 1 T ctrl_shiftamt[2]~input_o $end
$var wire 1 U ctrl_shiftamt[3]~input_o $end
$var wire 1 V ctrl_shiftamt[4]~input_o $end
$var wire 1 W data_result[0]~output_o $end
$var wire 1 X data_result[1]~output_o $end
$var wire 1 Y data_result[2]~output_o $end
$var wire 1 Z data_result[3]~output_o $end
$var wire 1 [ data_result[4]~output_o $end
$var wire 1 \ data_result[5]~output_o $end
$var wire 1 ] data_result[6]~output_o $end
$var wire 1 ^ data_result[7]~output_o $end
$var wire 1 _ data_result[8]~output_o $end
$var wire 1 ` data_result[9]~output_o $end
$var wire 1 a data_result[10]~output_o $end
$var wire 1 b data_result[11]~output_o $end
$var wire 1 c data_result[12]~output_o $end
$var wire 1 d data_result[13]~output_o $end
$var wire 1 e data_result[14]~output_o $end
$var wire 1 f data_result[15]~output_o $end
$var wire 1 g data_result[16]~output_o $end
$var wire 1 h data_result[17]~output_o $end
$var wire 1 i data_result[18]~output_o $end
$var wire 1 j data_result[19]~output_o $end
$var wire 1 k data_result[20]~output_o $end
$var wire 1 l data_result[21]~output_o $end
$var wire 1 m data_result[22]~output_o $end
$var wire 1 n data_result[23]~output_o $end
$var wire 1 o data_result[24]~output_o $end
$var wire 1 p data_result[25]~output_o $end
$var wire 1 q data_result[26]~output_o $end
$var wire 1 r data_result[27]~output_o $end
$var wire 1 s data_result[28]~output_o $end
$var wire 1 t data_result[29]~output_o $end
$var wire 1 u data_result[30]~output_o $end
$var wire 1 v data_result[31]~output_o $end
$var wire 1 w isNotEqual~output_o $end
$var wire 1 x isLessThan~output_o $end
$var wire 1 y overflow~output_o $end
$var wire 1 z data_operandA[0]~input_o $end
$var wire 1 { data_operandB[0]~input_o $end
$var wire 1 | csa0_32|rca2_16|rca0|fa0|sum~0_combout $end
$var wire 1 } data_operandA[1]~input_o $end
$var wire 1 ~ ctrl_ALUopcode[0]~input_o $end
$var wire 1 !! csa0_32|rca2_16|rca0|fa0|cout~0_combout $end
$var wire 1 "! data_operandB[1]~input_o $end
$var wire 1 #! csa0_32|rca2_16|rca0|fa1|sum~combout $end
$var wire 1 $! data_operandA[2]~input_o $end
$var wire 1 %! data_operandB[2]~input_o $end
$var wire 1 &! csa0_32|rca2_16|rca0|fa1|cout~0_combout $end
$var wire 1 '! csa0_32|rca2_16|rca0|fa2|sum~0_combout $end
$var wire 1 (! data_operandA[3]~input_o $end
$var wire 1 )! data_operandB[3]~input_o $end
$var wire 1 *! csa0_32|rca2_16|rca0|fa2|cout~0_combout $end
$var wire 1 +! csa0_32|rca2_16|rca0|fa3|sum~0_combout $end
$var wire 1 ,! data_operandA[4]~input_o $end
$var wire 1 -! data_operandB[4]~input_o $end
$var wire 1 .! csa0_32|rca2_16|rca0|fa3|cout~0_combout $end
$var wire 1 /! csa0_32|rca2_16|rca1|fa0|sum~0_combout $end
$var wire 1 0! data_operandA[5]~input_o $end
$var wire 1 1! data_operandB[5]~input_o $end
$var wire 1 2! csa0_32|rca2_16|rca1|fa0|cout~0_combout $end
$var wire 1 3! csa0_32|rca2_16|rca1|fa1|sum~0_combout $end
$var wire 1 4! data_operandA[6]~input_o $end
$var wire 1 5! data_operandB[6]~input_o $end
$var wire 1 6! csa0_32|rca2_16|rca1|fa1|cout~0_combout $end
$var wire 1 7! csa0_32|rca2_16|rca1|fa2|sum~0_combout $end
$var wire 1 8! data_operandA[7]~input_o $end
$var wire 1 9! data_operandB[7]~input_o $end
$var wire 1 :! csa0_32|rca2_16|rca1|fa2|cout~0_combout $end
$var wire 1 ;! csa0_32|rca2_16|rca1|fa3|sum~0_combout $end
$var wire 1 <! data_operandA[8]~input_o $end
$var wire 1 =! data_operandB[8]~input_o $end
$var wire 1 >! csa0_32|rca2_16|rca1|fa3|cout~0_combout $end
$var wire 1 ?! csa0_32|rca2_16|rca2|fa0|sum~0_combout $end
$var wire 1 @! data_operandA[9]~input_o $end
$var wire 1 A! data_operandB[9]~input_o $end
$var wire 1 B! csa0_32|rca2_16|rca2|fa0|cout~0_combout $end
$var wire 1 C! csa0_32|rca2_16|rca2|fa1|sum~0_combout $end
$var wire 1 D! data_operandA[10]~input_o $end
$var wire 1 E! data_operandB[10]~input_o $end
$var wire 1 F! csa0_32|rca2_16|rca2|fa1|cout~0_combout $end
$var wire 1 G! csa0_32|rca2_16|rca2|fa2|sum~0_combout $end
$var wire 1 H! data_operandA[11]~input_o $end
$var wire 1 I! data_operandB[11]~input_o $end
$var wire 1 J! csa0_32|rca2_16|rca2|fa2|cout~0_combout $end
$var wire 1 K! csa0_32|rca2_16|rca2|fa3|sum~0_combout $end
$var wire 1 L! data_operandA[12]~input_o $end
$var wire 1 M! data_operandB[12]~input_o $end
$var wire 1 N! csa0_32|rca2_16|rca2|fa3|cout~0_combout $end
$var wire 1 O! csa0_32|rca2_16|rca3|fa0|sum~0_combout $end
$var wire 1 P! data_operandA[13]~input_o $end
$var wire 1 Q! data_operandB[13]~input_o $end
$var wire 1 R! csa0_32|rca2_16|rca3|fa0|cout~0_combout $end
$var wire 1 S! csa0_32|rca2_16|rca3|fa1|sum~0_combout $end
$var wire 1 T! data_operandA[14]~input_o $end
$var wire 1 U! data_operandB[14]~input_o $end
$var wire 1 V! csa0_32|rca2_16|rca3|fa1|cout~0_combout $end
$var wire 1 W! csa0_32|rca2_16|rca3|fa2|sum~0_combout $end
$var wire 1 X! data_operandA[15]~input_o $end
$var wire 1 Y! data_operandB[15]~input_o $end
$var wire 1 Z! csa0_32|rca2_16|rca3|fa2|cout~0_combout $end
$var wire 1 [! csa0_32|rca2_16|rca3|fa3|sum~0_combout $end
$var wire 1 \! data_operandB[16]~input_o $end
$var wire 1 ]! data_operandA[16]~input_o $end
$var wire 1 ^! csa0_32|rca2_16|rca3|fa3|cout~0_combout $end
$var wire 1 _! csa0_32|Sum[16]~19_combout $end
$var wire 1 `! wireB[16]~0_combout $end
$var wire 1 a! data_operandA[17]~input_o $end
$var wire 1 b! data_operandB[17]~input_o $end
$var wire 1 c! csa0_32|rca0_16|rca0|fa1|sum~0_combout $end
$var wire 1 d! csa0_32|Sum[17]~2_combout $end
$var wire 1 e! csa0_32|rca1_16|rca0|fa0|c2~combout $end
$var wire 1 f! csa0_32|rca1_16|rca0|fa1|cout~0_combout $end
$var wire 1 g! wireB[17]~1_combout $end
$var wire 1 h! csa0_32|rca0_16|rca0|fa1|cout~0_combout $end
$var wire 1 i! data_operandA[18]~input_o $end
$var wire 1 j! data_operandB[18]~input_o $end
$var wire 1 k! csa0_32|rca0_16|rca0|fa2|sum~0_combout $end
$var wire 1 l! csa0_32|Sum[18]~3_combout $end
$var wire 1 m! csa0_32|rca1_16|rca0|fa2|cout~0_combout $end
$var wire 1 n! csa0_32|rca0_16|rca0|fa2|cout~0_combout $end
$var wire 1 o! data_operandA[19]~input_o $end
$var wire 1 p! data_operandB[19]~input_o $end
$var wire 1 q! csa0_32|rca0_16|rca0|fa3|sum~0_combout $end
$var wire 1 r! csa0_32|Sum[19]~4_combout $end
$var wire 1 s! csa0_32|rca1_16|rca0|fa3|cout~0_combout $end
$var wire 1 t! csa0_32|rca0_16|rca0|fa3|cout~0_combout $end
$var wire 1 u! data_operandA[20]~input_o $end
$var wire 1 v! data_operandB[20]~input_o $end
$var wire 1 w! csa0_32|rca0_16|rca1|fa0|sum~0_combout $end
$var wire 1 x! csa0_32|Sum[20]~5_combout $end
$var wire 1 y! csa0_32|rca1_16|rca1|fa0|cout~0_combout $end
$var wire 1 z! csa0_32|rca0_16|rca1|fa0|cout~0_combout $end
$var wire 1 {! data_operandA[21]~input_o $end
$var wire 1 |! data_operandB[21]~input_o $end
$var wire 1 }! csa0_32|rca0_16|rca1|fa1|sum~0_combout $end
$var wire 1 ~! csa0_32|Sum[21]~6_combout $end
$var wire 1 !" csa0_32|rca1_16|rca1|fa1|cout~0_combout $end
$var wire 1 "" csa0_32|rca0_16|rca1|fa1|cout~0_combout $end
$var wire 1 #" data_operandA[22]~input_o $end
$var wire 1 $" data_operandB[22]~input_o $end
$var wire 1 %" csa0_32|rca0_16|rca1|fa2|sum~0_combout $end
$var wire 1 &" csa0_32|Sum[22]~7_combout $end
$var wire 1 '" csa0_32|rca1_16|rca1|fa2|cout~0_combout $end
$var wire 1 (" csa0_32|rca0_16|rca1|fa2|cout~0_combout $end
$var wire 1 )" data_operandA[23]~input_o $end
$var wire 1 *" data_operandB[23]~input_o $end
$var wire 1 +" csa0_32|rca0_16|rca1|fa3|sum~0_combout $end
$var wire 1 ," csa0_32|Sum[23]~8_combout $end
$var wire 1 -" csa0_32|rca1_16|rca1|fa3|cout~0_combout $end
$var wire 1 ." csa0_32|rca0_16|rca1|fa3|cout~0_combout $end
$var wire 1 /" data_operandA[24]~input_o $end
$var wire 1 0" data_operandB[24]~input_o $end
$var wire 1 1" csa0_32|rca0_16|rca2|fa0|sum~0_combout $end
$var wire 1 2" csa0_32|Sum[24]~9_combout $end
$var wire 1 3" csa0_32|rca1_16|rca2|fa0|cout~0_combout $end
$var wire 1 4" csa0_32|rca0_16|rca2|fa0|cout~0_combout $end
$var wire 1 5" data_operandA[25]~input_o $end
$var wire 1 6" data_operandB[25]~input_o $end
$var wire 1 7" csa0_32|rca0_16|rca2|fa1|sum~0_combout $end
$var wire 1 8" csa0_32|Sum[25]~10_combout $end
$var wire 1 9" csa0_32|rca1_16|rca2|fa1|cout~0_combout $end
$var wire 1 :" csa0_32|rca0_16|rca2|fa1|cout~0_combout $end
$var wire 1 ;" data_operandA[26]~input_o $end
$var wire 1 <" data_operandB[26]~input_o $end
$var wire 1 =" csa0_32|rca0_16|rca2|fa2|sum~0_combout $end
$var wire 1 >" csa0_32|Sum[26]~11_combout $end
$var wire 1 ?" csa0_32|rca1_16|rca2|fa2|cout~0_combout $end
$var wire 1 @" csa0_32|rca0_16|rca2|fa2|cout~0_combout $end
$var wire 1 A" data_operandA[27]~input_o $end
$var wire 1 B" data_operandB[27]~input_o $end
$var wire 1 C" csa0_32|rca0_16|rca2|fa3|sum~0_combout $end
$var wire 1 D" csa0_32|Sum[27]~12_combout $end
$var wire 1 E" csa0_32|rca1_16|rca2|fa3|cout~0_combout $end
$var wire 1 F" csa0_32|rca0_16|rca2|fa3|cout~0_combout $end
$var wire 1 G" data_operandA[28]~input_o $end
$var wire 1 H" data_operandB[28]~input_o $end
$var wire 1 I" csa0_32|rca0_16|rca3|fa0|sum~0_combout $end
$var wire 1 J" csa0_32|Sum[28]~13_combout $end
$var wire 1 K" csa0_32|rca1_16|rca3|fa0|cout~0_combout $end
$var wire 1 L" csa0_32|rca0_16|rca3|fa0|cout~0_combout $end
$var wire 1 M" data_operandA[29]~input_o $end
$var wire 1 N" data_operandB[29]~input_o $end
$var wire 1 O" csa0_32|rca0_16|rca3|fa1|sum~0_combout $end
$var wire 1 P" csa0_32|Sum[29]~14_combout $end
$var wire 1 Q" csa0_32|rca1_16|rca3|fa1|cout~0_combout $end
$var wire 1 R" csa0_32|rca0_16|rca3|fa1|cout~0_combout $end
$var wire 1 S" data_operandA[30]~input_o $end
$var wire 1 T" data_operandB[30]~input_o $end
$var wire 1 U" csa0_32|rca0_16|rca3|fa2|sum~0_combout $end
$var wire 1 V" csa0_32|Sum[30]~15_combout $end
$var wire 1 W" data_operandA[31]~input_o $end
$var wire 1 X" data_operandB[31]~input_o $end
$var wire 1 Y" csa0_32|Sum[31]~16_combout $end
$var wire 1 Z" csa0_32|Sum[31]~17_combout $end
$var wire 1 [" csa0_32|Sum[31]~18_combout $end
$var wire 1 \" csa0_32|Ovf~combout $end
$upscope $end
$upscope $end
$enddefinitions $end
#0
$dumpvars
b0 !
b0 "
b0 #
b0 $
0D
0C
0B
0A
0@
0?
0>
0=
0<
0;
0:
09
08
07
06
05
04
03
02
01
00
0/
0.
0-
0,
0+
0*
0)
0(
0'
0&
0%
0E
0F
0G
0H
1I
xJ
1K
1L
1M
0N
0O
0P
0Q
0R
0S
0T
0U
0V
0W
0X
0Y
0Z
0[
0\
0]
0^
0_
0`
0a
0b
0c
0d
0e
0f
0g
0h
0i
0j
0k
0l
0m
0n
0o
0p
0q
0r
0s
0t
0u
0v
0w
0x
0y
0z
0{
0|
0}
0~
0!!
0"!
0#!
0$!
0%!
0&!
0'!
0(!
0)!
0*!
0+!
0,!
0-!
0.!
0/!
00!
01!
02!
03!
04!
05!
06!
07!
08!
09!
0:!
0;!
0<!
0=!
0>!
0?!
0@!
0A!
0B!
0C!
0D!
0E!
0F!
0G!
0H!
0I!
0J!
0K!
0L!
0M!
0N!
0O!
0P!
0Q!
0R!
0S!
0T!
0U!
0V!
0W!
0X!
0Y!
0Z!
0[!
0\!
0]!
0^!
0_!
0`!
0a!
0b!
0c!
0d!
0e!
0f!
0g!
0h!
0i!
0j!
0k!
0l!
0m!
0n!
0o!
0p!
0q!
0r!
0s!
0t!
0u!
0v!
0w!
0x!
0y!
0z!
0{!
0|!
0}!
0~!
0!"
0""
0#"
0$"
0%"
0&"
0'"
0("
0)"
0*"
0+"
0,"
0-"
0."
0/"
00"
01"
02"
03"
04"
05"
06"
07"
08"
09"
0:"
0;"
0<"
0="
0>"
0?"
0@"
0A"
0B"
0C"
0D"
0E"
0F"
0G"
0H"
0I"
0J"
0K"
0L"
0M"
0N"
0O"
0P"
0Q"
0R"
0S"
0T"
0U"
0V"
0W"
0X"
0Y"
0Z"
0["
0\"
$end
#10000
b100000000000000000000 #
b101000000000000000000 #
b101100000000000000000 #
b101101000000000000000 #
b101101100000000000000 #
b101101110000000000000 #
b101101110001000000000 #
b101101110001100000000 #
b101101110001101000000 #
b101101110001101100000 #
10!
14!
1<!
1@!
1P!
1T!
1X!
1a!
1i!
1u!
1c!
1k!
1w!
13!
17!
1?!
1C!
1S!
1W!
1[!
1f
1e
1d
1`
1_
1]
1\
1?
1>
1<
1;
17
16
15
1d!
1l!
1x!
1k
1i
1h
13
12
10
#20000
b100000000000000 $
b110000000000000 $
b111000000000000 $
b111010000000000 $
b111010100000000 $
b111010100100000 $
b111010100110000 $
1-!
11!
1=!
1E!
1M!
1Q!
1U!
16!
1B!
1V!
1Z!
1/!
03!
0?!
1G!
1O!
0S!
0W!
0e
0d
1c
1a
0_
0\
1[
1:!
1F!
1^!
1@
0?
0<
1:
18
07
06
07!
0C!
1W!
0[!
0f
1e
0`
0]
1J!
0>
0;
16
05
1;!
0G!
1_!
1g
0a
1^
1=
0:
14
1K!
1b
19
#70000
b11010100110000 $
b1010100110000 $
b10100110000 $
b100110000 $
b110000 $
b10000 $
b0 $
0-!
01!
0=!
0E!
0M!
0Q!
0U!
06!
0B!
0J!
0V!
0/!
13!
1?!
1G!
0O!
1S!
0W!
0e
1d
0c
1a
1_
1\
0[
0:!
0F!
0Z!
0@
1?
1<
1:
08
17
06
17!
1C!
0K!
1W!
1e
0b
1`
1]
0^!
1>
1;
09
16
0;!
0G!
1[!
1f
0a
0^
0=
0:
15
0_!
0g
04
#80000
b10000000000000000000000000000000 $
b11000000000000000000000000000000 $
b11100000000000000000000000000000 $
b11110000000000000000000000000000 $
b11111000000000000000000000000000 $
b11111100000000000000000000000000 $
b11111110000000000000000000000000 $
b11111111000000000000000000000000 $
b11111111100000000000000000000000 $
b11111111110000000000000000000000 $
b11111111111000000000000000000000 $
b11111111111100000000000000000000 $
b11111111111110000000000000000000 $
b11111111111111000000000000000000 $
b11111111111111100000000000000000 $
b11111111111111110000000000000000 $
b11111111111111111000000000000000 $
b11111111111111111000100000000000 $
b11111111111111111000101000000000 $
b11111111111111111000101010000000 $
b11111111111111111000101011000000 $
b11111111111111111000101011001000 $
b11111111111111111000101011001100 $
b11111111111111111000101011001110 $
b11111111111111111000101011001111 $
b1101110001101100000 #
b101110001101100000 #
b1110001101100000 #
b110001101100000 #
b10001101100000 #
b1101100000 #
b101100000 #
b1100000 #
b100000 #
b0 #
b11111111111111111100101011001111 $
b11111111111111111110101011001111 $
b11111111111111111111101011001111 $
b11111111111111111111111011001111 $
b11111111111111111111111111001111 $
b11111111111111111111111111101111 $
b11111111111111111111111111111111 $
00!
04!
0<!
0@!
0P!
0T!
0X!
0a!
0i!
0u!
1{
1"!
1%!
1)!
1-!
11!
15!
19!
1=!
1A!
1E!
1I!
1M!
1Q!
1U!
1Y!
1\!
1b!
1j!
1p!
1v!
1|!
1$"
1*"
10"
16"
1<"
1B"
1H"
1N"
1T"
1X"
1`!
1g!
1q!
1}!
1%"
1+"
11"
17"
1="
1C"
1I"
1O"
1U"
1|
1#!
1'!
1+!
1/!
1;!
1G!
1K!
1O!
1_!
1["
1v
1g
1c
1b
1a
1^
1[
1Z
1Y
1X
1W
1h!
1D
1C
1B
1A
1@
1=
1:
19
18
14
1%
1r!
1~!
1&"
1,"
12"
18"
1>"
1D"
1J"
1P"
1V"
1u
1t
1s
1r
1q
1p
1o
1n
1m
1l
1j
1n!
11
1/
1.
1-
1,
1+
1*
1)
1(
1'
1&
1t!
1z!
1""
1("
1."
14"
1:"
1@"
1F"
1L"
1R"
#90000
b1 !
1~
1Z"
0U"
0R"
0O"
0L"
0I"
0F"
0C"
0@"
0="
0:"
07"
04"
01"
0."
0+"
0("
0%"
0""
0}!
0z!
0w!
0t!
0q!
0n!
0k!
0g!
0c!
0`!
1\"
0_!
0[!
0W!
0S!
0O!
0K!
0G!
0C!
0?!
0;!
07!
03!
0/!
0+!
0'!
0#!
0X
0Y
0Z
0[
0\
0]
0^
0_
0`
0a
0b
0c
0d
0e
0f
0g
1y
0h!
1G
04
05
06
07
08
09
0:
0;
0<
0=
0>
0?
0@
0A
0B
0C
0\"
0["
0V"
0P"
0J"
0D"
0>"
08"
02"
0,"
0&"
0~!
0x!
0r!
0l!
0d!
0h
0i
0j
0k
0l
0m
0n
0o
0p
0q
0r
0s
0t
0u
0v
0y
0G
0%
0&
0'
0(
0)
0*
0+
0,
0-
0.
0/
00
01
02
03
#120000
b0 !
0~
0Z"
1U"
1O"
1I"
1C"
1="
17"
11"
1+"
1%"
1}!
1w!
1q!
1k!
1g!
1c!
1`!
1_!
1[!
1W!
1S!
1O!
1K!
1G!
1C!
1?!
1;!
17!
13!
1/!
1+!
1'!
1#!
1X
1Y
1Z
1[
1\
1]
1^
1_
1`
1a
1b
1c
1d
1e
1f
1g
1h!
14
15
16
17
18
19
1:
1;
1<
1=
1>
1?
1@
1A
1B
1C
1["
1V"
1P"
1J"
1D"
1>"
18"
12"
1,"
1&"
1~!
1x!
1r!
1l!
1d!
1h
1i
1j
1k
1l
1m
1n
1o
1p
1q
1r
1s
1t
1u
1v
1n!
1%
1&
1'
1(
1)
1*
1+
1,
1-
1.
1/
10
11
12
13
1t!
1z!
1""
1("
1."
14"
1:"
1@"
1F"
1L"
1R"
#150000
b10000000000000000000000000000000 #
b10100000000000000000000000000000 #
b10110000000000000000000000000000 #
b10111000000000000000000000000000 #
b10111100000000000000000000000000 #
b10111110000000000000000000000000 #
b10111110001000000000000000000000 #
b10111110001010000000000000000000 #
b10111110001010010000000000000000 #
b10111110001010010001000000000000 #
b10111110001010010001100000000000 #
b10111110001010010001100000010000 #
b1111111111111111111111111111111 $
b1101111111111111111111111111111 $
b1101011111111111111111111111111 $
b1101010111111111111111111111111 $
b1101010110111111111111111111111 $
b1101010110111011111111111111111 $
b1101010110111001111111111111111 $
b1101010110111000111111111111111 $
b1101010110111000111111111111101 $
b10111110001010110001100000010000 #
b10111110001010110101100000010000 #
b10111110001010110111100000010000 #
b10111110001010110111100100010000 #
b10111110001010110111100101010000 #
b10111110001010110111100101110000 #
b1101010110111000011111111111101 $
b1101010110111000001111111111101 $
b1101010110111000001111111101101 $
0"!
0-!
0Q!
0U!
0Y!
0\!
0b!
0|!
00"
0<"
0H"
0X"
1,!
10!
14!
1<!
1H!
1L!
1P!
1T!
1]!
1a!
1o!
1{!
15"
1;"
1A"
1G"
1M"
1W"
0`!
0g!
04"
01"
16!
1:!
1B!
1N!
1R!
1s!
0q!
19"
07"
1E"
0C"
1Q"
0O"
0#!
0[!
03!
07!
0?!
0K!
0O!
0d!
0h
0c
0b
0_
0]
0\
0f
0X
1>!
1F!
1V!
1y!
1?"
1K"
1Y"
0C
05
0?
0>
0<
09
08
03
1d!
08"
02"
17!
0;!
0C!
1O!
0S!
0x!
0r!
0>"
0J"
0D"
0V"
0P"
0t
0u
0r
0s
0q
0j
0k
0d
1c
0`
0^
1]
0o
0p
1h
1J!
1Z!
1!"
1Z"
13
0+
0,
1>
0=
0;
18
07
00
01
0*
0(
0)
0&
0'
1?!
0G!
0W!
0~!
1D"
1P"
1t
1r
0l
0e
0a
1_
1'"
1<
0:
06
0/
1)
1'
1K!
1[!
0&"
0["
0v
0m
1f
1b
1-"
19
15
0.
0%
0,"
0n
0-
12"
1o
1,
#160000
b10111110101010110111100101110000 #
b10111110101010110111110101110000 #
b10111110101010110111110101110010 #
b10111110101010110111110101110011 #
b101010110111000001111111101101 $
b100010110111000001111111101101 $
b100000110111000001111111101101 $
b100000010111000001111111101101 $
b100000010111000001110111101101 $
b100000010111000001110101101101 $
b100000010111000001110100101101 $
b100000010111000001110100101001 $
b10111110101010110111111101110011 #
b100000010111000001100100101001 $
b100000010111000001100100001001 $
b10101110101010110111111101110011 #
b10100110101010110111111101110011 #
b10100100101010110111111101110011 #
b10100100101000110111111101110011 #
b10100100101000110111111101100011 #
b100100010111000001100100001001 $
b100100011111000001100100001001 $
b100100011111010001100100001001 $
b100100011111010001100100001011 $
b10100100101000110101111101100011 #
b10100100101000110101111001100011 #
b10100100101000110101111001000011 #
b100100011111010101100100001011 $
b100100011111010101100100011011 $
1"!
0%!
1-!
01!
05!
09!
0A!
0E!
1U!
1\!
1|!
0*"
06"
1<"
0B"
0T"
1z
1}
0,!
00!
0<!
1@!
1D!
0P!
0o!
1)"
05"
0A"
0G"
1&!
06!
0>!
1e!
1`!
0}!
0:"
09"
0="
0F"
0E"
0Z"
0U"
1!!
0V!
0s!
1q!
0L"
0K"
0I"
0'!
07!
1;!
1W!
0_!
0|
0?!
1S!
1d
0_
0W
0g
1e
1^
0]
0Y
0:!
0B!
1f!
0y!
0B
0>
1=
16
04
0D
0<
17
1'!
17!
1?!
0d!
1~!
1["
1V"
1#!
0W!
1x!
1r!
0P"
0t
1j
1k
0e
1X
1u
1v
1l
0h
1_
1]
1Y
0F!
1m!
1B
1>
1<
03
1/
1%
1&
1C
06
10
11
0'
0;!
1C!
0l!
0~!
0l
0i
1`
0^
0J!
1s!
0=
1;
02
0/
1G!
0r!
0j
1a
1y!
1:
01
0K!
0x!
0k
0b
09
00
1~!
1l
1/
#170000
b10100100101000110101111011000011 #
b10100100101000110101111011001011 #
b100100001111010101100100011011 $
b100100001011010101100100011011 $
b100100001001010101100100011011 $
b100100001000010101100100011011 $
b100100001000010101000100011011 $
b10100100101000111101111011001011 #
b100100001000010101000000011011 $
b10100100001000010101000000011011 $
b10110100001000010101000000011011 $
b10100100101000111001111011001011 #
b10100100101000111001111010001011 #
b10100100001000111001111010001011 #
b10100100001000111001111010001001 #
b11110100001000010101000000011011 $
b11110100001000010101000000011111 $
b10110100001000111001111010001001 #
b10110110001000111001111010001001 #
b10110110001000111001111010011001 #
b11110100001000000101000000011111 $
b10110110001000111011111010011001 #
b10110110001000111011111110011001 #
b10110110001000111011111110111001 #
b11110100001000000101000000001111 $
1%!
0-!
0=!
0I!
0\!
0j!
0p!
0v!
0$"
1H"
1T"
1X"
0}
1(!
1,!
10!
04!
18!
1<!
1P!
0T!
1X!
0)"
15"
1G"
1*!
0N!
0e!
0`!
0n!
0m!
0k!
0t!
0s!
0q!
0z!
0y!
0w!
0("
0'"
0%"
1L"
1K"
1Z"
1U"
1.!
1V!
0Z!
1^!
0."
0-"
0+"
17"
0'!
1K!
1_!
1\"
0["
0#!
0+!
13!
07!
1;!
0S!
1W!
0[!
0f
1e
0d
1^
0]
1\
0Z
0X
0v
1y
1g
1b
0Y
0f!
12!
1Z!
0^!
0B
19
14
1G
0%
0C
0A
1?
0>
1=
07
16
05
1+!
0O!
1l!
0~!
1&"
1P"
0\"
1["
0V"
0/!
0W!
1[!
18"
02"
0_!
0g
0o
1p
1f
0e
0[
0u
1v
0y
1t
1m
0l
1i
0c
1Z
16!
1^!
1A
08
12
0/
1.
1'
0G
1%
0&
0@
06
15
1+
0,
04
0l!
03!
0[!
1d!
1_!
1g
1h
0f
0\
0i
02
0?
05
13
14
17!
1l!
0d!
0_!
0g
0h
1i
1]
1>
12
03
04
#180000
b10110111001000111011111110111001 #
b10110111011000111011111110111001 #
b10110111011000111011111110111101 #
b11010100001000000101000000001111 $
b11010100001000000100000000001111 $
b10110011011000111011111110111101 #
b10110011010000111011111110111101 #
b10110011010000101011111110111101 #
b10110011010000101010111110111101 #
b11010101001000000100000000001111 $
b10110011010000101010101110111101 #
b10110011010000101010101110111100 #
b11011101001000000100000000001111 $
b11011101001000000100000000101111 $
b10110011010010101010101110111100 #
b11011001001000000100000000101111 $
b11011001000000000100000000101111 $
b10110011010010101010101110110100 #
b11011001000100000100000000101111 $
b11011001000110000100000000101111 $
b10110011010010100010101110110100 #
b11011001000110000100000100101111 $
b10110011010010100110101110110100 #
b10011001000110000100000100101111 $
b10011001000110000100000100101011 $
b10110011010010100110101110100100 #
b10110011010010100110101010100100 #
b10110011010010100110101010000100 #
0%!
11!
1=!
0M!
1p!
1v!
0|!
10"
0<"
1B"
0N"
0T"
0z
1$!
0(!
0,!
00!
0<!
0D!
0L!
1T!
0X!
0]!
1o!
0{!
1#"
1/"
0;"
0R!
1t!
1s!
1w!
0""
0!"
14"
13"
0@"
0?"
1F"
1E"
1C"
1O"
0Z"
0U"
0!!
02!
0^!
0h!
1("
1'"
1%"
1|
0+!
1/!
0G!
1W!
1[!
1d!
1_!
1g
1h
1f
1e
0a
1[
0Z
1W
0V!
1z!
1y!
0("
0'"
1:"
19"
0F"
0E"
0&!
06!
1D
0A
1@
0:
16
15
13
14
1S!
08"
1J"
0P"
1\"
0["
1V"
1#!
13!
1,"
0l!
0_!
0g
0i
1n
1\
1X
1u
0v
1y
0t
1s
0p
1d
0*!
17
0+
1(
0'
1G
0%
1&
1C
1?
1-
02
04
0W!
1~!
0,"
1>"
0J"
1'!
07!
0]
1Y
0s
1q
0n
1l
0e
0.!
06
1/
0-
1*
0(
1B
0>
1+!
1Z
1A
0/!
0[
0@
